{
    "skeletonVariables": {
        "main_recipe": "A",
        "sub_recipe": "B",
        "recipe_id": "C",
        "recipe_unit": "D",
        "altlifelab_code": "E",
        "vendor_foodsource_name": "F",
        "foodsource_unit": "G",
        "main_category": "H",
        "sub_category": "I",
        "procurement_category": "J",
        "lineage": "K",
        "MSS": "L",
        "recipe_makes": "M",
        "mss_foodsource_quantity": "N",
        "FSS": "O",
        "Nos": "P",
        "eff_quantity": "Q",
        "fos": "S",
        "gross_foodsource_quantity": "T"
    },
    "header": {
        "A": "main_recipe",
        "B": "sub_recipe",
        "C": "recipe_id",
        "D": "recipe_unit",
        "E": "altlifelab_code",
        "F": "vendor_foodsource_name",
        "G": "foodsource_unit",
        "H": "main_category",
        "I": "sub_category",
        "J": "procurement_category",
        "K": "lineage",
        "L": "MSS",
        "M": "recipe_makes",
        "N": "mss_foodsource_quantity",
        "O": "FSS",
        "P": "Nos",
        "Q": "eff_quantity",
        "S": "fos",
        "T": "gross_foodsource_quantity"
    }
}